{
  "provisioners": [
    {
      "type": "shell",
      "execute_command": "echo 'password' | sudo -S sh -c '{{ .Vars }} {{ .Path }}'",
      "skip_clean": "true",
      "scripts": [ "scripts/ansible.sh" ]
    },
      {
          "type": "ansible-local",
          "playbook_file": "ansible/main.yml"
      }


  ],
  "builders": [
    {
      "type": "virtualbox-iso",
      "boot_command": [ "<tab> text ks=http://{{ .HTTPIP }}:{{ .HTTPPort }}/ks.cfg<enter><wait>" ],
      "boot_wait": "10s",
      "disk_size": 10000,
      "guest_os_type": "RedHat_64",
      "headless": true,
      "http_directory": "http",
      "iso_urls": [ "./iso/centos7.iso" ],
      "iso_checksum_type": "none",
      "iso_checksum": "88c0437f0a14c6e2c94426df9d43cd67",
      "ssh_username": "root",
      "ssh_password": "password",
      "ssh_port": 22,
      "ssh_wait_timeout": "11000s",
      "shutdown_command": "echo 'password'|sudo -S /sbin/halt -h -p",
      "guest_additions_path": "VBoxGuestAdditions_{{.Version}}.iso",
      "virtualbox_version_file": ".vbox_version",
      "vm_name": "packer-centos-7-x86_64",
      "vboxmanage": [
        [
          "modifyvm",
          "{{.Name}}",
          "--memory",
          "2048"
        ],
        [
          "modifyvm",
          "{{.Name}}",
          "--cpus",
          "2"
        ]
          
      ]
    }

  ]


}
